<?xml version="1.0" encoding="UTF-8" standalone="no"?>
<svg
   width="54"
   height="54"
   version="1.1"
   id="svg1429"
   sodipodi:docname="logo-mobile.svg"
   inkscape:version="1.2.2 (b0a8486541, 2022-12-01)"
   xmlns:inkscape="http://www.inkscape.org/namespaces/inkscape"
   xmlns:sodipodi="http://sodipodi.sourceforge.net/DTD/sodipodi-0.dtd"
   xmlns="http://www.w3.org/2000/svg"
   xmlns:svg="http://www.w3.org/2000/svg">
  <defs
     id="defs1433" />
  <sodipodi:namedview
     id="namedview1431"
     pagecolor="#505050"
     bordercolor="#eeeeee"
     borderopacity="1"
     inkscape:showpageshadow="0"
     inkscape:pageopacity="0"
     inkscape:pagecheckerboard="0"
     inkscape:deskcolor="#505050"
     showgrid="false"
     inkscape:zoom="16.44678"
     inkscape:cx="32.255554"
     inkscape:cy="26.813759"
     inkscape:window-width="1920"
     inkscape:window-height="1131"
     inkscape:window-x="0"
     inkscape:window-y="0"
     inkscape:window-maximized="1"
     inkscape:current-layer="g1427" />
  <g
     fill="none"
     fill-rule="evenodd"
     id="g1427">
    <path
       stroke="#f24088"
       stroke-width="4"
       d="m 1.2566091,1.2662705 h 28.7155469 14.103215 8.67989 V 52.747192 H 1.2566091 Z"
       id="path1423"
       style="opacity:1;fill:none;stroke:#696eff;stroke-width:1.67101;stroke-linejoin:round;stroke-dasharray:none;stroke-opacity:1"
       sodipodi:nodetypes="ccccccc" />
    <g
       aria-label="/"
       id="text2376"
       style="font-weight:800;font-size:26.6667px;font-family:'JetBrains Mono';-inkscape-font-specification:'JetBrains Mono, Ultra-Bold';fill:#696eff">
      <path
         d="m 11.415565,38.564338 9.440012,-25.066699 h 2.773337 l -9.440012,25.066699 z"
         style="fill:#0e0d11"
         id="path3512" />
    </g>
    <g
       aria-label="&lt;"
       id="text2376-36"
       style="font-weight:800;font-size:26.6667px;font-family:'JetBrains Mono';-inkscape-font-specification:'JetBrains Mono, Ultra-Bold';fill:#696eff">
      <path
         d="M 41.570261,33.38965 29.996913,27.682977 v -2.826671 l 11.573348,-5.706674 v 2.50667 l -8.133344,3.946672 q -0.506667,0.24 -0.960001,0.4 -0.453334,0.160001 -0.693334,0.213334 0.24,0.08 0.720001,0.24 0.480001,0.160001 0.933334,0.400001 l 8.133344,3.946671 z"
         id="path3509" />
    </g>
    <g
       aria-label="_"
       id="text2376-3"
       style="font-weight:800;font-size:26.6667px;font-family:'JetBrains Mono';-inkscape-font-specification:'JetBrains Mono, Ultra-Bold';fill:#696eff">
      <path
         d="m 17.231765,38.378524 v -2.26667 h 12.800017 v 2.26667 z"
         style="fill:#0e0d11"
         id="path3506" />
    </g>
    <text
       xml:space="preserve"
       style="font-style:normal;font-variant:normal;font-weight:normal;font-stretch:normal;font-family:'JetBrains Mono';-inkscape-font-specification:'JetBrains Mono';fill:#84a98c;stroke-width:1.671;stroke-linejoin:round;stroke-opacity:0.635294"
       x="36.896946"
       y="24.800161"
       id="text8198"><tspan
         sodipodi:role="line"
         id="tspan8196"
         x="36.896946"
         y="24.800161" /></text>
  </g>
</svg>
